^D:\SOURCES\SFML\GO JIM\GO JIM\GO JIM\GAME.CPP
D:\SOURCES\SFML\GO JIM\GO JIM\GO JIM\DEBUG\VC140.PDB
D:\SOURCES\SFML\GO JIM\GO JIM\GO JIM\DEBUG\VC140.IDB
D:\SOURCES\SFML\GO JIM\GO JIM\GO JIM\DEBUG\GAME.OBJ
